\relax 
\citation{sultan2015dls}
\citation{sultan2014back}
\citation{he2015multi}
\citation{pennington2014glove}
\@writefile{toc}{\contentsline {section}{\numberline {1}Introduction}{1}}
\newlabel{introduction}{{1}{1}}
\@writefile{toc}{\contentsline {section}{\numberline {2}System description}{1}}
\newlabel{sys-description}{{2}{1}}
\@writefile{toc}{\contentsline {subsection}{\numberline {2.1}Monolingual Alignment}{1}}
\@writefile{toc}{\contentsline {subsection}{\numberline {2.2}Convolutional Neural Network Score}{1}}
\@writefile{toc}{\contentsline {subsubsection}{\numberline {2.2.1}Word Representation}{1}}
\@writefile{toc}{\contentsline {subsubsection}{\numberline {2.2.2}Sentence modelling}{1}}
\bibdata{naaclhlt2016}
\bibcite{he2015multi}{\citename {He \bgroup et al.\egroup }2015}
\bibcite{pennington2014glove}{\citename {Pennington \bgroup et al.\egroup }2014}
\bibcite{sultan2014back}{\citename {Sultan \bgroup et al.\egroup }2014}
\bibcite{sultan2015dls}{\citename {Sultan \bgroup et al.\egroup }2015}
\bibstyle{naaclhlt2016}
\@writefile{toc}{\contentsline {subsubsection}{\numberline {2.2.3}Similarity Measurement Layer}{2}}
\@writefile{toc}{\contentsline {subsubsection}{\numberline {2.2.4}Application on SemEval Data}{2}}
\@writefile{toc}{\contentsline {section}{\numberline {3}Results}{2}}
\newlabel{results}{{3}{2}}
\@writefile{toc}{\contentsline {section}{\numberline {4}Conclusion}{2}}
\newlabel{conclusion}{{4}{2}}
